<svg viewBox="0 0 512 512" xmlns="http://www.w3.org/2000/svg"><rect fill="#000" width="512" height="512" x="0" y="0"/><rect fill="#000" width="512" height="512" x="0" y="0"/><rect fill="#000" width="512" height="512" x="0" y="0"/><rect fill="#000" width="512" height="512" x="0" y="0"/>
<g transform="matrix(18.68858,0,0,18.68858,-8397.9705,-1383.01212)">
<path d="m460.5369,85.1662h7.0633c0,4.9545 2.4977,8.3902 6.5955,11.1727h-19.9182c3.4395-2.7862 6.2595-6.2304 6.2595-11.1727z" fill="#fff" stroke="#000"/>
<path d="m471.8365,81.6241v5.1431c1.3758-.3992 2.7515-1.3617 4.1273-2.78-1.3758-1.4425-2.7188-2.1269-4.1273-2.363z" fill="#fff" fill-rule="evenodd"/>
<path d="m450.3466,81.119h7.0585v5.3701c-2.8668-.0646-5.8499-2.0908-7.0585-5.3701z" fill="#fff" fill-rule="evenodd"/>
<path d="m455.7965,79.7098h16.185v8.8402h-16.185v-8.8402z" fill="#fff" stroke="#000" stroke-width=".9343"/>
<path d="m454.2983,94.9122h19.0869v3.3326h-19.0869z" fill="#fff" stroke="#000"/>
</g>
</svg>
