<svg viewBox="0 0 512 512" xmlns="http://www.w3.org/2000/svg"><rect fill="#000" width="512" height="512" x="0" y="0"/><rect fill="#000" width="512" height="512" x="0" y="0"/><rect fill="#000" width="512" height="512" x="0" y="0"/><rect fill="#000" width="512" height="512" x="0" y="0"/>
<g transform="matrix(18.68858,0,0,18.68858,-4312.83614,-37445.34087)">
<path d="m236.9613,2030.0116c-3.0337,0-5.0607-1.3681-3.5452-5.669 2.1318-6.0503 1.873-14.1059-.2802-19.653l10.5551.029c-1.0363,3.497-1.5667,13.7729 1.9871,17.6314l8.0999,4.1297c3.8905-.6261 5.1518,3.6987.9939,3.6987z" fill="#fff"/>
<path d="m238.4029,2030.1819c3.5308-2.3834 7.0616-1.4144 10.5924,0z"/>
</g>
</svg>
