<svg viewBox="0 0 512 512" xmlns="http://www.w3.org/2000/svg"><rect fill="#000" width="512" height="512" x="0" y="0"/><rect fill="#000" width="512" height="512" x="0" y="0"/><rect fill="#000" width="512" height="512" x="0" y="0"/><rect fill="#000" width="512" height="512" x="0" y="0"/>
<g transform="matrix(18.68858,0,0,18.68858,-3388.25782,-6619.32391)">
<path d="m192.6921,380.6991 7.6711.004 3.7806-18.5518-3.4408-6.7826-8.0246-.004 .0138,25.3344z" fill="#fff"/>
<path d="m190.2641,381.2135 6.9662.004 3.5589-19.0709-3.5732-7.2382-6.9662-.004-3.6171,7.2344 3.6314,19.0748z" fill="#fff" stroke="#000"/>
<path d="m191.4179,359.9871h4.75" fill="none" stroke="#000"/>
<path d="m191.4179,361.9246h4.75" fill="none" stroke="#000"/>
<path d="m200.9951,362.2701h4.3752" fill="none" stroke="#000"/>
</g>
</svg>
