<svg viewBox="0 0 512 512" xmlns="http://www.w3.org/2000/svg"><rect fill="#000" width="512" height="512" x="0" y="0"/><rect fill="#000" width="512" height="512" x="0" y="0"/><rect fill="#000" width="512" height="512" x="0" y="0"/><rect fill="#000" width="512" height="512" x="0" y="0"/>
<g transform="matrix(18.68858,0,0,18.68858,712.88948,-7329.66332)">
<path d="m-35.0678,402.814 22.6308,12.0611-12.9035-11.4203 12.9389-6.4186-5.0119-3.7964h-9.0856l5.101,3.0685-13.6697,6.5057z" fill="#fff" fill-rule="evenodd"/>
<path d="m-37.0367,393.2359v2.125l16.5625,9.3438-8.5938,5.6562 17.4062,8.2812-10.0312-7.875 9.0312-5.0625-17.4062-12.4688h-6.9688z" fill="#fff" fill-rule="evenodd"/>
<path d="m-20.953,410.9237 5.0132-2.8001" fill="none" stroke="#000"/>
<path d="m-26.4849,408.0577 4.7061-3.0988" fill="none" stroke="#000"/>
<path d="m-23.8858,403.2955 5.5883-2.7703" fill="none" stroke="#000"/>
<path d="m-30.4042,400.0391 6.3591-3.02" fill="none" stroke="#000"/>
</g>
</svg>
