<svg viewBox="0 0 512 512" xmlns="http://www.w3.org/2000/svg"><rect fill="#000" width="512" height="512" x="0" y="0"/><rect fill="#000" width="512" height="512" x="0" y="0"/><rect fill="#000" width="512" height="512" x="0" y="0"/><rect fill="#000" width="512" height="512" x="0" y="0"/>
<g transform="matrix(18.68858,0,0,18.68858,-2272.13538,-28566.59253)">
<path d="m138.6566,1546.5831-9.8726,2.6454-7.2273-7.2273 2.6454-9.8726 9.8726-2.6454 7.2273,7.2273z" fill="none" stroke="#fff" stroke-width="2.3704" transform="matrix(.40814,-.10901,.10936,.40685,-94.68772,922.33697)"/>
<path d="m138.6566,1546.5831-9.8726,2.6454-7.2273-7.2273 2.6454-9.8726 9.8726-2.6454 7.2273,7.2273z" fill="none" stroke="#fff" stroke-width="2.3704" transform="matrix(.40814,-.10901,.10936,.40685,-83.48468,928.8732)"/>
<path d="m138.6566,1546.5831-9.8726,2.6454-7.2273-7.2273 2.6454-9.8726 9.8726-2.6454 7.2273,7.2273z" fill="none" stroke="#fff" stroke-width="2.3704" transform="matrix(.40814,-.10901,.10936,.40685,-83.48468,937.52855)"/>
<path d="m131.2951,1545.3417 3.7401,2.1525" fill="none" stroke="#fff"/>
<path d="m131.2951,1553.6251 3.7401-2.1525" fill="none" stroke="#fff"/>
<path d="m142.0628,1538.8389 3.7401-2.1525" fill="none" stroke="#fff"/>
<path d="m127.251,1542.5829 .006-4.3152" fill="none" stroke="#fff"/>
<path d="m128.7244,1545.5703c0,1.089-.8828,1.9718-1.9718,1.9718s-1.9718-.8828-1.9718-1.9718 .8828-1.9718 1.9718-1.9718 1.9718.8828 1.9718,1.9718z" fill="#fff" transform="matrix(.69284,0,0,.69284,43.01613,474.21767)"/>
<path d="m128.7244,1545.5703c0,1.089-.8828,1.9718-1.9718,1.9718s-1.9718-.8828-1.9718-1.9718 .8828-1.9718 1.9718-1.9718 1.9718.8828 1.9718,1.9718z" fill="#fff" transform="matrix(.69284,0,0,.69284,58.49893,465.51087)"/>
<path d="m128.7244,1545.5703c0,1.089-.8828,1.9718-1.9718,1.9718s-1.9718-.8828-1.9718-1.9718 .8828-1.9718 1.9718-1.9718 1.9718.8828 1.9718,1.9718z" fill="#fff" transform="matrix(.69284,0,0,.69284,43.16185,482.81518)"/>
<path d="m131.2181,1535.4875 4.4126,2.5997" fill="none" stroke="#fff"/>
<path d="m130.0606,1537.0661 4.6608,2.7648" fill="none" stroke="#fff"/>
<path d="m129.9238,1535.8159 5.7898,3.5157" fill="none" stroke="#000"/>
<path d="m141.1629,1550.0364c0,1.3366-1.0836,2.4202-2.4202,2.4202s-2.4202-1.0836-2.4202-2.4202 1.0836-2.4203 2.4202-2.4203 2.4202,1.0836 2.4202,2.4203z" fill="#fff" stroke="#000" stroke-width=".9388" transform="matrix(1.06522,0,0,1.06522,-9.3115,-101.61546)"/>
<path d="m138.4859,1532.0654 .006,4.3152" fill="none" stroke="#fff"/>
<path d="m128.7244,1545.5703c0,1.089-.8828,1.9718-1.9718,1.9718s-1.9718-.8828-1.9718-1.9718 .8828-1.9718 1.9718-1.9718 1.9718.8828 1.9718,1.9718z" stroke="#fff" stroke-width="1.4433" transform="matrix(.69284,0,0,-.69284,50.60805,2602.3335)"/>
<path d="m128.7244,1545.5703c0,1.089-.8828,1.9718-1.9718,1.9718s-1.9718-.8828-1.9718-1.9718 .8828-1.9718 1.9718-1.9718 1.9718.8828 1.9718,1.9718z" stroke="#fff" stroke-width="1.4433" transform="matrix(.69284,0,0,-.69284,39.38016,2613.5339)"/>
<path d="m125.67,1537.9261 .01-4.5949 3.9764-2.3027" fill="none" stroke="#fff"/>
<path d="m136.8348,1544.4838 .01-4.5949 3.9764-2.3027" fill="none" stroke="#fff"/>
<path d="m141.1629,1550.0364c0,1.3366-1.0836,2.4202-2.4202,2.4202s-2.4202-1.0836-2.4202-2.4202 1.0836-2.4203 2.4202-2.4203 2.4202,1.0836 2.4202,2.4203z" fill="#fff" stroke="#000" stroke-width="1.5082" transform="matrix(.66304,0,0,.66304,36.3064,507.22099)"/>
<path d="m130.0402,1549.346 4.3153.01" fill="none" stroke="#fff"/>
<path d="m128.7244,1545.5703c0,1.089-.8828,1.9718-1.9718,1.9718s-1.9718-.8828-1.9718-1.9718 .8828-1.9718 1.9718-1.9718 1.9718.8828 1.9718,1.9718z" fill="#fff" transform="matrix(.60001,.34642,-.34642,.60001,589.1195,577.93075)"/>
</g>
</svg>
