<svg viewBox="0 0 512 512" xmlns="http://www.w3.org/2000/svg"><rect fill="#000" width="512" height="512" x="0" y="0"/><rect fill="#000" width="512" height="512" x="0" y="0"/><rect fill="#000" width="512" height="512" x="0" y="0"/><rect fill="#000" width="512" height="512" x="0" y="0"/>
<g transform="matrix(18.68858,0,0,18.68858,-9760.7919,-24501.83081)">
<path d="m533.0847,1316.5368 10.8628,10.8256" fill="none" stroke="#fff"/>
<path d="m536.7489,1319.6013c-.8793-1.3495-.3458-1.863.5179-1.8534l-3.3912-.9724 2.8733,2.8258z" fill="#fff" fill-rule="evenodd"/>
<path d="m532.2566,1314.3814c-3.7342-.038-7.6276,2.9256-8.2862,6.4421-.6994,3.7343.7037,7.289 4.471,9.3294 1.5479.8386 3.6368,2.3661 3.7258,3.9941 .0843,1.5421-.8803,2.5249-2.0567,3.3305h7.5709c.567-1.3987.8371-2.7164.6855-3.9863-.3754-3.1469-3.2934-5.8007-6.5574-7.1237-1.6916-.6856-3.607-1.3571-3.1893-4.5008 .421-3.1686 3.8355-4.2425 5.9315-3.3681l-.3343-3.7689c-.5941-.2341-1.4273-.3429-1.9607-.3483z" fill="#fff" fill-rule="evenodd"/>
<path d="m533.6455,1314.5469 13.6849,3.6667 1.2827,1.4701-.2836,1.0586-15.2492-4.086 .5652-2.1094z" fill="#fff"/>
<path d="m532.0318,1320.3887c0,.6986-.5663,1.2649-1.265,1.2649s-1.265-.5663-1.265-1.2649 .5663-1.265 1.265-1.265 1.265.5663 1.265,1.265z" stroke="#fff" stroke-width=".7724" transform="matrix(1.25062,.3351,-.3351,1.25062,317.57793,-512.00002)"/>
<path d="m538.0219,1321.0986 2.5106-.3248-1.5928,1.445" fill="#fff" fill-rule="evenodd"/>
<path d="m539.9572,1322.6765 2.5106-.3247-1.5928,1.445" fill="#fff" fill-rule="evenodd"/>
<path d="m541.6256,1324.4005 2.5106-.3248-1.5928,1.445" fill="#fff" fill-rule="evenodd"/>
<path d="m543.2834,1326.0007 2.5106-.3248-1.5928,1.445" fill="#fff" fill-rule="evenodd"/>
<path d="m540.0935,1317.8802 .8866,2.3855 .5398-2.0936" fill="#fff" fill-rule="evenodd"/>
<path d="m542.3548,1318.8281 .8866,2.3856 .5398-2.0936" fill="#fff" fill-rule="evenodd"/>
<path d="m544.7568,1319.6709 .8867,2.3856 .5397-2.0936" fill="#fff" fill-rule="evenodd"/>
<path d="m546.9418,1320.2531 .8866,2.3856 .5398-2.0936" fill="#fff" fill-rule="evenodd"/>
<path d="m538.4863,1315.3025-4.4273-3.3812 1.4456,4.5063" fill="#fff" fill-rule="evenodd"/>
<path d="m535.8354,1314.4854-5.1516-2.1202 2.5626,3.9786" fill="#fff" fill-rule="evenodd"/>
<path d="m534.0967,1314.5473-5.5248-.7146 3.5051,3.1797" fill="#fff" fill-rule="evenodd"/>
</g>
</svg>
