<svg viewBox="0 0 512 512" xmlns="http://www.w3.org/2000/svg"><rect fill="#000" width="512" height="512" x="0" y="0"/><rect fill="#000" width="512" height="512" x="0" y="0"/><rect fill="#000" width="512" height="512" x="0" y="0"/><rect fill="#000" width="512" height="512" x="0" y="0"/>
<g transform="matrix(18.68858,0,0,18.68858,-6355.50898,-6359.39897)">
<path d="m695.1875,438.8622c0,6.4548-3.5398,11.6875-7.9062,11.6875s-7.9062-5.2327-7.9062-11.6875 3.5398-11.6875 7.9062-11.6875 7.9062,5.2327 7.9062,11.6875z" fill="#fff" stroke="#000" stroke-width="1.0438" transform="matrix(.88594,0,0,.89038,-255.07352,-38.7042)"/>
<g transform="translate(-.0183)">
<path d="m353.0378,351.035c-.9912-1.2612-2.55-1.5562-4.098-.6773" fill="none" stroke="#000"/>
<path d="m354.6302,351.064c.9912-1.2611 2.55-1.5562 4.098-.6773" fill="none" stroke="#000"/>
</g>
<path d="m382.469,644.6867c0,2.2577-1.8302,4.088-4.088,4.088s-4.088-1.8302-4.088-4.088 1.8302-4.088 4.088-4.088 4.088,1.8302 4.088,4.088z" transform="translate(-24.5653,-287.6297)"/>
<path d="m364.1114,347.1039c.7566,2.7398.7947,5.9688-.0795,9.2315-1.2973,4.8418-4.2808,8.5919-7.7161,10.3234 4.5069-.97 8.3163-4.353 9.5907-9.1094 .9989-3.7278.2308-7.4925-1.7952-10.4456z" fill="#fff"/>
<path d="m343.5201,347.1039c-.7566,2.7398-.7947,5.9688.0795,9.2315 1.2973,4.8418 4.2808,8.5919 7.7161,10.3234-4.5069-.97-8.3163-4.353-9.5907-9.1094-.9989-3.7278-.2308-7.4925 1.7952-10.4456z" fill="#fff"/>
<path d="m361.2156,349.2605c.5513,1.9963.5791,4.3489-.0579,6.7262-.9453,3.5278-3.1191,6.2602-5.6221,7.5218 3.2838-.7068 6.0594-3.1717 6.988-6.6372 .7278-2.7161.1682-5.4592-1.308-7.6108z" fill="#fff"/>
<path d="m346.4158,349.2605c-.5513,1.9963-.5791,4.3489.0579,6.7262 .9453,3.5278 3.1191,6.2602 5.6221,7.5218-3.2838-.7068-6.0594-3.1717-6.988-6.6372-.7278-2.7161-.1682-5.4592 1.308-7.6108z" fill="#fff"/>
</g>
</svg>
