<svg viewBox="0 0 512 512" xmlns="http://www.w3.org/2000/svg"><rect fill="#000" width="512" height="512" x="0" y="0"/><rect fill="#000" width="512" height="512" x="0" y="0"/><rect fill="#000" width="512" height="512" x="0" y="0"/><rect fill="#000" width="512" height="512" x="0" y="0"/>
<g transform="matrix(18.68858,0,0,18.68858,-6355.19281,-19763.01357)">
<path d="m365.1721,1061.354c-3.4184-2.6156-8.3799-3.1795-11.7629-2.5389 2.8133,1.6958 3.7442,2.6189 3.9196,6.1186l4.4683,2.1164 3.375-5.6961z" fill="#fff"/>
<path d="m350.1348,1066.2321c0,1.3481-1.0929,2.4409-2.4409,2.4409s-2.441-1.0928-2.441-2.4409 1.0929-2.441 2.441-2.441 2.4409,1.0929 2.4409,2.441z" transform="matrix(-.92854,-.77741,-.66677,.51564,1396.2096,784.38038)"/>
<path d="m354.8438,1058.625c-10.7412,0-9.8835,10.5671 0,12.0938s7.3563,10.2139.5298,10.2139c-4.5034,0-7.5361-1.0639-9.6861-3.4327-2.2507-2.4796-.6678-5.3281 2.3702-2.7781 3.0514,2.5613 5.3668,4.4707 9.1923,1.4969-4.7911,1.5891-6.6684-2.2853-10.0762-4.3799-3.2313-1.9861-7.386,2.0721-4.6016,6.4868 2.3224,3.6822 8.172,5.7681 13.0215,5.7681 11.8064,0 13.875-14.5168 3.375-16.1563-3.707-.5788-6.3866-1.2519-7.6875-3.3125-.9924-1.5722 1.9754-4.8498 5.6562-3l-2.0938-3z" fill="#fff" fill-rule="evenodd"/>
<path d="m361.1941,1065.4399c.6323.1713 1.2994.1877 1.8968-.068-.3186.6086-.6615,1.1524-1.1182,1.3926" fill="#fff" fill-rule="evenodd"/>
<path d="m364.5996,1062.3138c-.1526.8695-.4461,1.6973-.9955,2.4497-.0837-.9713-.1433-1.9398-.6745-2.9638" fill="#fff" fill-rule="evenodd"/>
<path d="m358.4575,1060.2535c.7213.04 1.4331.098 2.0057.4352" fill="none" stroke="#000"/>
</g>
</svg>
