<svg viewBox="0 0 512 512" xmlns="http://www.w3.org/2000/svg"><rect fill="#000" width="512" height="512" x="0" y="0"/><rect fill="#000" width="512" height="512" x="0" y="0"/><rect fill="#000" width="512" height="512" x="0" y="0"/><rect fill="#000" width="512" height="512" x="0" y="0"/>
<g transform="matrix(18.68858,0,0,18.68858,-4021.94985,-9138.81456)">
<path d="m239.7919,501.2643c0,7.3144-4.9346,14.7508-11.0147,14.7508s-11.0147-7.4364-11.0147-14.7508 4.9346-11.7508 11.0147-11.7508 11.0147,4.4363 11.0147,11.7508z" fill="#fff" stroke="#000" stroke-width=".927"/>
<path d="m237.2776,504.7875c0,4.197-3.8082,9.4418-8.5004,9.4418s-8.5005-5.2448-8.5005-9.4418 3.8082-6.2119 8.5005-6.2119 8.5004,2.0149 8.5004,6.2119z"/>
<path d="m222.1863,499.2689c-.6044,3.1007-.0397,6.5427 1.7245,9.4719-.2416-1.9167-.1552-4.8788.2407-7.0498 0,0 2.0445-.8765 4.7421-.8765 2.7301,0 4.5495.8569 4.5495.8569 .3994,2.1779.5072,5.1462.2648,7.0694 1.5063-2.5632 2.2818-6.5516 1.7004-9.5308-5.0253-1.7314-8.8932-1.6096-13.2221.0588z" fill="#fff"/>
<path d="m224.365,513.3974c-.3789-1.9436.2521-4.1012 1.358-5.9374-.1514,1.2015-.0973,2.6673.1509,4.0282 0,0 1.5083.5109 2.9725.5109 1.4913,0 2.8518-.4986 2.8518-.4986 .2504-1.3652.3179-2.835.166-4.0405 .9442,1.6067 1.7073,4.1068 1.3429,5.9742-3.15,1.0853-6.1286,1.009-8.8421-.0369z" fill="#fff"/>
<path d="m237.2549,504.1616c0,4.1474-3.798,9.927-8.4776,9.927s-8.4777-5.7796-8.4777-9.927 3.798-5.5419 8.4777-5.5419 8.4776,1.3944 8.4776,5.5419z" fill="none" stroke="#000"/>
<g transform="translate(-.1458)">
<path d="m220.3724,496.6839c.4551-1.1084 1.1011-2.3156 1.9898-3.0289 1.928-.3688 3.775-.3814 5.6538-.1976-2.6199.7428-5.0576,1.8849-7.6436,3.2265z" fill-rule="evenodd"/>
</g>
<g transform="matrix(-1,0,0,1,457.70019,0)">
<path d="m220.3724,496.6839c.4551-1.1084 1.1011-2.3156 1.9898-3.0289 1.928-.3688 3.775-.3814 5.6538-.1976-2.6199.7428-5.0576,1.8849-7.6436,3.2265z" fill-rule="evenodd"/>
</g>
</g>
</svg>
