<svg viewBox="0 0 512 512" xmlns="http://www.w3.org/2000/svg"><rect fill="#000" width="512" height="512" x="0" y="0"/><rect fill="#000" width="512" height="512" x="0" y="0"/><rect fill="#000" width="512" height="512" x="0" y="0"/><rect fill="#000" width="512" height="512" x="0" y="0"/>
<g transform="matrix(18.68858,0,0,18.68858,-3388.64832,-2215.37081)">
<path d="m192.2325,129.3203-10,10v5.5625h5.375l10.0938-10.0938-5.4688-5.4688z" fill="#fff"/>
<path d="m181.7796,141.8591 15.6196-15.6178m3.349,3.3486-15.8051,15.8032" fill="#fff" stroke="#000"/>
<path d="m201.2023,119.7104c-2.8283-.73-5.9623-.004-8.1759,2.2097-3.3293,3.3292-3.3293,8.7358-2e-05,12.065s8.7358,3.3292 12.065,0c2.216-2.216 2.9436-5.3452 2.2097-8.1759l-5.6348,5.6348-4.8172-1.2816-1.2816-4.8171 5.6348-5.6348z" fill="#fff"/>
</g>
</svg>
