<svg viewBox="0 0 512 512" xmlns="http://www.w3.org/2000/svg"><rect fill="#000" width="512" height="512" x="0" y="0"/><rect fill="#000" width="512" height="512" x="0" y="0"/><rect fill="#000" width="512" height="512" x="0" y="0"/><rect fill="#000" width="512" height="512" x="0" y="0"/>
<g transform="matrix(18.68858,0,0,18.68858,4525.52382,-2218.55988)">
<path d="m-220.3735,138.8556c5.5805,7.5552-7.2828,2.597-11.3804-2.5869-3.207-4.0571 11.3624-2.2043 5.4262-9.4961-6.5884-8.0848-18.7251-8.8053-12.3051-3.101-1.6472-4.6102 12.5214,1.9201 13.1667,6.0285 .5851,3.7254-16.5288,1.6296-6.0056,9.399 7.3425,5.4211 21.2873,7.7247 11.0982-.2435z" fill="#fff" fill-rule="evenodd"/>
</g>
</svg>
